name;description;latex;unit;unit_description;value;expression;temperature;type
f_SUXCBhyd;Fraction of inert COD generated in hydrolysis;\zeta_\text{SUhy};g/g;gramSnb/gramXCB;0;;20;stoichiometric
Y_StorOHOOx;Yield for XOHO growth per XOHO,Stor (Aerobic );\gamma_\text{shO2};g/g;gXOHO/gXStor;0.63;;20;stoichiometric
Y_StorOHOAx;Yield for XOHO growth per XOHO,Stor (Anoxic);\gamma_\text{shan};g/g;gramXOHO/gramXStor;0.54;;20;stoichiometric
Y_SBStorOx;Yield for XOHO,Stor formation per SB (Aerobic );\gamma_\text{SBsO2};g/g;gramXStor/gramSB;0.85;;20;stoichiometric
Y_SBStorAx;Yield for XOHO,Stor formation per SB (Anoxic);\gamma_\text{SBs,an};g/g;gramXStor/gramSB;0.8;;20;stoichiometric
f_XUBiolys;Fraction of Xnb generated in biomass decay;\zeta_\text{Xnb,l};g/g;gramXU/gramXBio;0.2;;20;stoichiometric
Y_ANO;Yield of XANO growth per SNO3;\gamma_\text{a};g/g;gramXAUT/gramSNOx;0.24;;20;stoichiometric
i_NSB;N content of SB;\iota_\text{NSB};g/g;gramN/gramSB;0.03;;20;stoichiometric
i_NSU;N content of Snb;\iota_\text{NSnb};g/g;gramN/gramSU;0.01;;20;stoichiometric
i_NXU;N content of Xnb;\iota_\text{NXnb};g/g;gramN/gramXU;0.02;;20;stoichiometric
i_NXCB;N content of XB;\iota_\text{NXCB};g/g;gramN/gramXCB;0.04;;20;stoichiometric
i_NXBio;N content of biomass (XOHO, XPAO, XANO);\iota_\text{NXb};g/g;gramN/gramXBio;0.07;;20;stoichiometric
i_TSSXU;Conversion factor XU in TSS;\iota_\text{TSS,Xnb};g/g;gramTSS/gramXU;0.75;;20;stoichiometric
i_TSSXCB;Conversion factor XB in TSS;\iota_\text{TSS,XCB};g/g;gramTSS/gramXCB;0.75;;20;stoichiometric
i_TSSXBio;Conversion factor biomass in TSS;\iota_\text{TSS_Xb};g/g;gramTSS/gramXBio;0.9;;20;stoichiometric
i_TSSXOHOStor;Conversion factor XSTO in TSS*;\iota_\text{TSS,Xs};g/g;gramTSS/gramXStor;0.6;;20;stoichiometric
i_NO3N2;Conversion factor for NO3 reduction to N2;\iota_\text{NO3,N2};g/g;gramCOD/gramN;;(COD_N-(COD_N+3*COD_O+COD_neg))/(M_N);20;stoichiometric
i_CODNO3;Conversion factor for NO3 in COD;\iota_\text{COD,NO3};g/g;gramCOD/gramN;;(COD_N+3*COD_O+COD_neg)/M_N;20;stoichiometric
i_CODN2;Conversion factor for N2 in COD;\iota_\text{COD,N2};g/g;gramCOD/gramN;;(2*COD_N)/(2*M_N);20;stoichiometric
i_ChargeSNHx;Conversion factor for NHx in charge;\iota_\text{cSNHx};mol/g;Charge/gramN;;1/M_N;20;stoichiometric
i_ChargeSNOx;Conversion factor for NO3 in charge;\iota_\text{cSNOx};mol/g;Charge/gramN;;-1/M_N;20;stoichiometric
q_XCBSBhyd;Maximum specific hydrolysis rate;\lambda_\text{hyd};g/g;gramXCB/gramXOHO/d;3;;20;kinetic
K_XCBhyd;Half saturation parameter for XCB/XOHO;\kappa_\text{hyd,b};g/g;gramXCB/gramXOHO;1;;20;kinetic
q_SBStor;Rate constant for XOHO,Stor storage;\lambda_\text{hs};g/g/day;gramXCB/gramXOHO/d;5;;20;kinetic
m_OHOMax;Maximum growth rate of XOHO;\mu_\text{h};1/day;per day;2;;20;kinetic
n_mOHOAx;Reduction factor for anoxic growth of XOHO;\eta_\text{an,h};-;-;0.6;;20;kinetic
K_SBOHO;Half-saturation coefficient for SB;\kappa_\text{SB};g/m^3;gramSB/m^3;2;;20;kinetic
K_StorOHO;Half-saturation coefficient for XOHO,Stor/XOHO;\kappa_\text{sh};g/g;gramXStor/gramXOHO;1;;20;kinetic
m_OHOOx;Endogenous respiration rate of XOHO (Aerobic);\mu_\text{O2e,h};1/day;per day;0.2;;20;kinetic
m_OHOAx;Endogenous respiration rate of XOHO (Anoxic);\mu_\text{ane,h};1/day;per day;0.1;;20;kinetic
m_StorOx;Endogenous respiration rate of XOHO,Stor (Aerobic);\mu_\text{O2e,sh};1/day;per day;0.2;;20;kinetic
m_StorAx;Endogenous respiration rate of XOHO,Stor (Anoxic);\mu_\text{ane,sh};1/day;per day;0.1;;20;kinetic
K_O2OHO;Half-saturation coefficient for SO2;\kappa_\text{SO2};g/m^3;gramSO2/m^3;0.2;;20;kinetic
K_NOxOHO;Half-saturation coefficient for SNOx;\kappa_\text{SNOx};g/m^3;gramSNOx/m^3;0.5;;20;kinetic
K_NHxOHO;Half-saturation coefficient for SNHx;\kappa_\text{SNHx};g/m^3;gramSNHx/m^3;0.01;;20;kinetic
K_AlkOHO;Half-saturation coefficient for SAlk;\kappa_\text{Salk};mol/m^3;molHCO3-/m^3;0.1;;20;kinetic
m_ANOMax;Maximum growth rate of XANO;\mu_\text{a};1/day;per day;1;;20;kinetic
m_ANOOx;Endogenous respiration rate for XANO (Aerobic);\mu_\text{O2,a};1/day;per day;0.15;;20;kinetic
m_ANOAx;Endogenous respiration rate for XANO (Anoxic);\mu_\text{an,a};1/day;per day;0.05;;20;kinetic
K_O2ANO;Half-saturation coefficient for SO2;\kappa_\text{SO2};g/m^3;gramSO2/m^3;0.5;;20;kinetic
K_NHxANO;Half-saturation coefficient for SNHx;\kappa_\text{SNHx};g/m^3;gramSNHx/m^3;1;;20;kinetic
K_AlkANO;Half-saturation coefficient for SAlk;\kappa_\text{Salk};mol/m^3;molHCO3-/m^3;0.5;;20;kinetic
COD_neg;Theoretical COD of negative charge;\text{COD}_{-};g/mol;gramCOD/mol;8;;;factor
COD_pos;Theoretical COD of positive charge;\text{COD}_{+};g/mol;gramCOD/mol;-8;;;factor
COD_C;Theoretical COD of molar carbon;\text{COD}_\text{C};g/mol;gramCOD/mol;32;;;factor
COD_N;Theoretical COD of molar nitrogen;\text{COD}_\text{N};g/mol;gramCOD/mol;-24;;;factor
COD_H;Theoretical COD of molar hydrogen;\text{COD}_\text{H};g/mol;gramCOD/mol;8;;;factor
COD_O;Theoretical COD of molar oxygen;\text{COD}_\text{O};g/mol;gramCOD/mol;-16;;;factor
COD_S;Theoretical COD of molar sulphur;\text{COD}_\text{S};g/mol;gramCOD/mol;48;;;factor
COD_P;Theoretical COD of molar phosphorus;\text{COD}_\text{P};g/mol;gramCOD/mol;40;;;factor
COD_Fe;Theoretical COD of molar iron;\text{COD}_\text{Fe};g/mol;gramCOD/mol;24;;;factor
M_N;atomic molar mass of nitrogen;M_\text{N};g/mol;gram/mol;14;;;mass
v1_SNHx;stoichiometric correction factor for alkalinity;\nu_\text{1,SNHx};g/g;gramN/gramXCB;;-(1-f_SUXCBhyd)*i_NSB-f_SUXCBhyd*i_NSU+i_NXCB;;factor
v2_SNHx;stoichiometric correction factor for alkalinity;\nu_\text{2,SNHx};g/g;gramN/gramSB;;i_NSB;;factor
v3_SNHx;stoichiometric correction factor for alkalinity;\nu_\text{3,SNHx};g/g;gramN/gramSB;;i_NSB;;factor
v3_SNOx;stoichiometric correction factor for alkalinity;\nu_\text{3,SNOx};g/g;gramN/gramSB;;-(1-Y_SBStorAx)/((COD_N-(COD_N+3*COD_O+COD_neg))/(M_N));;factor
v4_SNHx;stoichiometric correction factor for alkalinity;\nu_\text{4,SNHx};g/g;gramN/gramXBio;;-i_NXBio;;factor
v5_SNHx;stoichiometric correction factor for alkalinity;\nu_\text{5,SNHx};g/g;gramN/gramXBio;;-i_NXBio;;factor
v5_SNOx;stoichiometric correction factor for alkalinity;\nu_\text{5,SNOx};g/g;gramN/gramXBio;;-(1-Y_StorOHOAx)/Y_StorOHOAx*(1/((COD_N-(COD_N+3*COD_O+COD_neg))/(M_N)));;factor
v6_SNHx;stoichiometric correction factor for alkalinity;\nu_\text{6,SNHx};g/g;gramN/gramXBio;;-f_XUBiolys*i_NXU+i_NXBio;;factor
v7_SNHx;stoichiometric correction factor for alkalinity;\nu_\text{7,SNHx};g/g;gramN/gramXBio;;-f_XUBiolys*i_NXU+i_NXBio;;factor
v7_SNOx;stoichiometric correction factor for alkalinity;\nu_\text{7,SNOx};g/g;gramN/gramXBio;;-(1-f_XUBiolys)/((COD_N-(COD_N+3*COD_O+COD_neg))/(M_N));;factor
v9_SNOx;stoichiometric correction factor for alkalinity;\nu_\text{9,SNOx};g/g;gramN/gramXStor;;-1/((COD_N-(COD_N+3*COD_O+COD_neg))/(M_N));;factor
v10_SNHx;stoichiometric correction factor for alkalinity;\nu_\text{10,SNHx};g/g;gramN/gramXBio;;-1/Y_ANO-i_NXBio;;factor
v10_SNOx;stoichiometric correction factor for alkalinity;\nu_\text{10,SNOx};g/g;gramN/gramXBio;;1/Y_ANO;;factor
v11_SNHx;stoichiometric correction factor for alkalinity;\nu_\text{11,SNHx};g/g;gramN/gramXBio;;-f_XUBiolys*i_NXU+i_NXBio;;factor
v12_SNHx;stoichiometric correction factor for alkalinity;\nu_\text{12,SNHx};g/g;gramN/gramXBio;;-f_XUBiolys*i_NXU+i_NXBio;;factor
v12_SNOx;stoichiometric correction factor for alkalinity;\nu_\text{12,SNOx};g/g;gramN/gramXBio;;-(1-f_XUBiolys)/((COD_N-(COD_N+3*COD_O+COD_neg))/(M_N));;factor
