process\state;S_O2;S_B;S_NHx;S_NOx;S_N2;S_Alk;S_U;X_U;XC_B;X_OHO;X_OHOStor;X_ANO;X_TSS
hy;;1-f_SUXCBhyd;-(1-f_SUXCBhyd)*i_NSB-f_SUXCBhyd*i_NSU+i_NXCB;;;v1_SNHx*i_ChargeSNHx;f_SUXCBhyd;;-1;;;;-i_TSSXCB
s_hO2;-(1-Y_SBStorOx);-1;i_NSB;;;v2_SNHx*i_ChargeSNHx;;;;;Y_SBStorOx;;Y_SBStorOx*i_TSSXOHOStor
s_hAn;;-1;i_NSB;-(1-Y_SBStorAx)/(i_NO3N2);(1-Y_SBStorAx)/(i_NO3N2);v3_SNHx*i_ChargeSNHx+v3_SNOx*i_ChargeSNOx;;;;;Y_SBStorAx;;Y_SBStorAx*i_TSSXOHOStor
g_hO2;-(1-Y_StorOHOOx)/Y_StorOHOOx;;-i_NXBio;;;v4_SNHx*i_ChargeSNHx;;;;1;-1/Y_StorOHOOx;;(-1/Y_StorOHOOx)*i_TSSXOHOStor+i_TSSXBio
g_hAn;;;-i_NXBio;-(1-Y_StorOHOAx)/Y_StorOHOAx*(1/i_NO3N2);(1-Y_StorOHOAx)/Y_StorOHOAx*(1/i_NO3N2);v5_SNHx*i_ChargeSNHx+v5_SNOx*i_ChargeSNOx;;;;1;-1/Y_StorOHOAx;;(-1/Y_StorOHOAx)*i_TSSXOHOStor+i_TSSXBio
er_hO2;-(1-f_XUBiolys);;-f_XUBiolys*i_NXU+i_NXBio;;;v6_SNHx*i_ChargeSNHx;;f_XUBiolys;;-1;;;-i_TSSXBio+f_XUBiolys*i_TSSXU
er_hAn;;;-f_XUBiolys*i_NXU+i_NXBio;-(1-f_XUBiolys)/(i_NO3N2);(1-f_XUBiolys)/(i_NO3N2);v7_SNOx*i_ChargeSNOx+v7_SNHx*i_ChargeSNHx;;f_XUBiolys;;-1;;;-i_TSSXBio+f_XUBiolys*i_TSSXU
r_hsO2;-1;;;;;;;;;;-1;;-i_TSSXOHOStor
r_hsAn;;;;-1/(i_NO3N2);1/(i_NO3N2);v9_SNOx*i_ChargeSNOx;;;;;-1;;-i_TSSXOHOStor
g_a;-(-i_CODNO3-Y_ANO)/Y_ANO;;-1/Y_ANO-i_NXBio;1/Y_ANO;;v10_SNHx*i_ChargeSNHx+v10_SNOx*i_ChargeSNOx;;;;;;1;i_TSSXBio
er_aO2;-(1-f_XUBiolys);;-f_XUBiolys*i_NXU+i_NXBio;;;v11_SNHx*i_ChargeSNHx;;f_XUBiolys;;;;-1;-i_TSSXBio+f_XUBiolys*i_TSSXU
er_aAn;;;-f_XUBiolys*i_NXU+i_NXBio;-(1-f_XUBiolys)/(i_NO3N2);(1-f_XUBiolys)/(i_NO3N2);v12_SNHx*i_ChargeSNHx+v12_SNOx*i_ChargeSNOx;;f_XUBiolys;;;;-1;-i_TSSXBio+f_XUBiolys*i_TSSXU
